{
    "8": {
        
         "delquery": "with control_rooms as ( select hstore(apids.QTABLENAME.*) store from apids.QTABLENAME), elements as (   select control_rooms.store->'location_code' as locationcode, control_rooms.store->'cday' as cday, control_rooms.store->'idcampcat' as campaigntype, locationid,control_rooms.store->'id' as room_id ,skeys(control_rooms.store),svals(control_rooms.store)     from control_rooms,location where locationcode = control_rooms.store->'location_code' ), map as  ( select dataelementid,valuetype, locationid,room_id, skeys,svals , locationcode,cday, campaigntype, datasetid as dsetid from elements,dataelement    where datasetid=8 and lower(dataelement.name) = skeys ), deleted as (  DELETE FROM datavalue WHERE  dataelementid IN ( select dataelementid from map) AND  periodid= QPERIOD AND   campaigntype IN (select campaigntype from map) AND sourceid IN (select locationid from map) AND datasetid IN (select dsetid from map) RETURNING * ) SELECT count(*) FROM deleted",
        "dataset": "idims_allplaningDist",
        "query": "with control_rooms as ( select hstore(apids.QTABLENAME.*) store from apids.QTABLENAME),elements as (    select control_rooms.store->'dist_id' as idimslocationid, control_rooms.store->'activityid' as activityid, control_rooms.store->'timestamp' as tstamp , control_rooms.store->'idcampcat' as campaigntype, locationid,control_rooms.store->'id' as room_id ,skeys(control_rooms.store),svals(control_rooms.store)     from control_rooms,location        where CAST(idimslocationid as varchar)= control_rooms.store->'dist_id' ), map as ( select dataelementid,valuetype, locationid,room_id, skeys,svals , tstamp, campaigntype, datasetid as dsetid, activityid, idimslocationid    from elements,dataelement    where datasetid=8 and lower(dataelement.name) = skeys ), inserted as (insert into datavalue (dataelementid,  periodid, valuetime, sourceid, disaggregationvaluecomboid, value, valuetext, lastupdated, created, code, timestamp, campaigntype,datasetid) select dataelementid, QPERIOD, now(), locationid, 3154, case when valuetype ='number' then CAST(svals as integer) else null END, case when valuetype ='string' then svals else null END,now(), now(),  dataelementid || '3154', tstamp, campaigntype, dsetid from map  RETURNING * ) SELECT count(*) FROM inserted"
    },
    "9": {
        "dataset": "idims_allneap",
        "delquery": "with control_rooms as ( select hstore(apids.QTABLENAME.*) store from apids.QTABLENAME), elements as (   select control_rooms.store->'location_code' as locationcode, control_rooms.store->'cday' as cday, control_rooms.store->'idcampcat' as campaigntype, locationid,control_rooms.store->'id' as room_id ,skeys(control_rooms.store),svals(control_rooms.store)     from control_rooms,location where locationcode = control_rooms.store->'location_code' ), map as  ( select dataelementid,valuetype, locationid,room_id, skeys,svals , locationcode,cday, campaigntype, datasetid as dsetid from elements,dataelement    where datasetid=9 and lower(dataelement.name) = skeys ), deleted as ( DELETE FROM datavalue WHERE  dataelementid IN ( select dataelementid from map) AND  periodid= QPERIOD AND   campaigntype IN (select campaigntype from map) AND sourceid IN (select locationid from map) AND datasetid IN (select dsetid from map) RETURNING * ) SELECT count(*) FROM deleted",
        "query": "with all_neap as (    select hstore(apids.QTABLENAME.*) store from apids.QTABLENAME),elements as (    select all_neap.store->'location_code' as locationcode, all_neap.store->'daysbeforeactivity' as daysbeforeactivity,all_neap.store->'timestamp' as tstamp , all_neap.store->'idcampcat' as campaigntype, locationid,all_neap.store->'id' as room_id ,skeys(all_neap.store),svals(all_neap.store)     from all_neap,location        where locationcode = all_neap.store->'location_code' ), map as ( select dataelementid,valuetype, locationid,room_id, skeys,svals , locationcode, tstamp, campaigntype, daysbeforeactivity, datasetid as dsetid    from elements,dataelement    where datasetid=9 and lower(dataelement.name) = skeys), inserted as (insert into datavalue (dataelementid,  periodid, valuetime, sourceid, disaggregationvaluecomboid,value, valuetext, lastupdated, created, code, timestamp, campaigntype,datasetid) select dataelementid, QPERIOD, daysbeforeactivity, locationid, 3154, case when valuetype ='number' then CAST(svals as integer) else null END, case when valuetype ='string' then svals else null END, now(), now(),  dataelementid || '3154', tstamp, campaigntype, dsetid from map RETURNING * ) SELECT count(*) FROM inserted"
    },
    "10": {
        
        "dataset": "idims_allcontrollroom",
        "delquery": "with control_rooms as ( select hstore(apids.QTABLENAME.*) store from apids.QTABLENAME), elements as (   select control_rooms.store->'location_code' as locationcode, control_rooms.store->'cday' as cday, control_rooms.store->'idcampcat' as campaigntype, locationid,control_rooms.store->'id' as room_id ,skeys(control_rooms.store),svals(control_rooms.store)     from control_rooms,location where locationcode = control_rooms.store->'location_code' ), map as  ( select dataelementid,valuetype, locationid,room_id, skeys,svals , locationcode,cday, campaigntype, datasetid as dsetid from elements,dataelement    where datasetid=10 and lower(dataelement.name) = skeys ) , deleted as ( DELETE FROM datavalue WHERE  dataelementid IN ( select dataelementid from map) AND  periodid= QPERIOD AND  valuetime IN (select cday from map) AND campaigntype IN (select campaigntype from map) AND sourceid IN (select locationid from map) AND datasetid IN (select dsetid from map) RETURNING * ) SELECT count(*) FROM deleted",
        "query": "with control_rooms as (    select hstore(apids.QTABLENAME.*) store from apids.QTABLENAME),elements as (    select control_rooms.store->'location_code' as locationcode, control_rooms.store->'cday' as cday,control_rooms.store->'activityid' as activityid, control_rooms.store->'timestamp' as tstamp , control_rooms.store->'idcampcat' as campaigntype, locationid,control_rooms.store->'id' as room_id ,skeys(control_rooms.store),svals(control_rooms.store)     from control_rooms,location        where locationcode = control_rooms.store->'location_code' ), map as ( select dataelementid,valuetype, locationid,room_id, skeys,svals , locationcode, tstamp,cday, campaigntype, datasetid as dsetid, activityid    from elements,dataelement    where datasetid=10 and lower(dataelement.name) = skeys ), inserted as  (insert into datavalue (dataelementid,  periodid, valuetime, sourceid, disaggregationvaluecomboid, value, valuetext, lastupdated, created, code, timestamp, campaigntype,datasetid) select dataelementid, QPERIOD, cday, locationid, 3154, case when valuetype ='number' then CAST(svals as integer) else null END, case when valuetype ='string' then svals else null END,now(), now(),  dataelementid || '3154', tstamp, campaigntype, dsetid from map RETURNING * ) SELECT count(*) FROM inserted"
    },
    "11": {        
        "dataset": "idims_allmarketSurvey",
        "delquery": "with control_rooms as ( select hstore(apids.QTABLENAME.*) store from apids.QTABLENAME), elements as ( select control_rooms.store->'location_code' as locationcode, control_rooms.store->'cday' as cday, control_rooms.store->'idcampcat' as campaigntype, locationid,control_rooms.store->'id' as room_id , skeys(control_rooms.store),svals(control_rooms.store)     from control_rooms,location where locationcode = control_rooms.store->'location_code' ), map as  ( select dataelementid,valuetype, locationid,room_id, skeys,svals , locationcode,cday, campaigntype, datasetid as dsetid from elements,dataelement    where datasetid=11 and lower(dataelement.name) = skeys ), deleted as (  DELETE FROM datavalue WHERE  dataelementid IN ( select dataelementid from map) AND  periodid= QPERIOD AND  campaigntype IN (select campaigntype from map) AND sourceid IN (select locationid from map) AND datasetid IN (select dsetid from map) RETURNING * ) SELECT count(*) FROM deleted;",
        "query": "with control_rooms as (    select hstore(apids.QTABLENAME.*) store from apids.QTABLENAME),elements as (    select control_rooms.store->'location_code' as locationcode, control_rooms.store->'yr' as yr,control_rooms.store->'activityid' as activityid, control_rooms.store->'timestamp' as tstamp , control_rooms.store->'idcampcat' as campaigntype, locationid,control_rooms.store->'id' as room_id ,skeys(control_rooms.store),svals(control_rooms.store)     from control_rooms,location        where locationcode = control_rooms.store->'location_code' ), map as ( select dataelementid,valuetype, locationid,room_id, skeys,svals , locationcode, tstamp, campaigntype, datasetid as dsetid, yr, activityid    from elements,dataelement    where datasetid=11 and lower(dataelement.name) = skeys), inserted as (insert into datavalue (dataelementid,  periodid, valuetime, sourceid, disaggregationvaluecomboid, value, valuetext, lastupdated, created, code, timestamp, campaigntype,datasetid) select dataelementid, QPERIOD, yr || activityid, locationid, 3154, case when valuetype ='number' and svals != ''   then CAST(svals as integer) else null END, case when valuetype ='string' then svals else null END,now(), now(), dataelementid || '3154', tstamp, campaigntype, dsetid from map  RETURNING * ) SELECT count(*) FROM inserted"
    },
    "12": {
         "delquery": "with control_rooms as ( select hstore(apids.QTABLENAME.*) store from apids.QTABLENAME), elements as (   select control_rooms.store->'location_code' as locationcode, control_rooms.store->'cday' as cday, control_rooms.store->'idcampcat' as campaigntype, locationid,control_rooms.store->'id' as room_id ,skeys(control_rooms.store),svals(control_rooms.store)     from control_rooms,location where locationcode = control_rooms.store->'location_code' ), map as  ( select dataelementid,valuetype, locationid,room_id, skeys,svals , locationcode,cday, campaigntype, datasetid as dsetid from elements,dataelement    where datasetid=12 and lower(dataelement.name) = skeys ), deleted as (  DELETE FROM datavalue WHERE  dataelementid IN ( select dataelementid from map) AND  periodid= QPERIOD AND  valuetime IN (select cday from map) AND campaigntype IN (select campaigntype from map) AND sourceid IN (select locationid from map) AND datasetid IN (select dsetid from map) RETURNING * ) SELECT count(*) FROM deleted;",
        "dataset": "LQAS_results",
        "query": "with lqas_results as (   select hstore(apids.QTABLENAME.*) store from apids.QTABLENAME),elements as (    select lqas_results.store->'ucode' as locationcode , lqas_results.store->'lqas_surveyname' as lqas_surveyname, locationid,lqas_results.store->'activityid' as activityid ,skeys(lqas_results.store),svals(lqas_results.store)     from lqas_results,location        where locationcode = lqas_results.store->'ucode' ), map as ( select dataelementid,valuetype, locationid,activityid, skeys,svals , locationcode, lqas_surveyname, datasetid as dsetid    from elements,dataelement    where datasetid=12 and lower(dataelement.name) = skeys ), inserted as (insert into datavalue (dataelementid,  periodid, valuetime, sourceid, disaggregationvaluecomboid,value, valuetext, lastupdated, created, code, timestamp, campaigntype,datasetid) select dataelementid, QPERIOD, lqas_surveyname, locationid, 3154, case when valuetype ='number' and svals != ''  then CAST(svals as integer) else null END, case when valuetype ='string' then svals else null END, now(), now(), dataelementid || '3154', lqas_surveyname, activityid, dsetid from map RETURNING * ) SELECT count(*) FROM inserted"
    },
    "13": {
         "delquery": "with control_rooms as ( select hstore(apids.QTABLENAME.*) store from apids.QTABLENAME), elements as (   select control_rooms.store->'location_code' as locationcode, control_rooms.store->'cday' as cday, control_rooms.store->'idcampcat' as campaigntype, locationid,control_rooms.store->'id' as room_id ,skeys(control_rooms.store),svals(control_rooms.store)     from control_rooms,location where locationcode = control_rooms.store->'location_code' ), map as  ( select dataelementid,valuetype, locationid,room_id, skeys,svals , locationcode,cday, campaigntype, datasetid as dsetid from elements,dataelement    where datasetid=13 and lower(dataelement.name) = skeys ) , deleted as( DELETE FROM datavalue WHERE  dataelementid IN ( select dataelementid from map) AND  periodid= QPERIOD AND   campaigntype IN (select campaigntype from map) AND sourceid IN (select locationid from map) AND datasetid IN (select dsetid from map) RETURNING * ) SELECT count(*) FROM deleted;",
        "dataset": "lqas_results_prevdose",
        "query": "with lqas_results as (   select hstore(apids.QTABLENAME.*) store from apids.QTABLENAME),elements as (    select lqas_results.store->'ucode' as locationcode , lqas_results.store->'lqas_surveyname' as lqas_surveyname, locationid,lqas_results.store->'activityid' as activityid ,skeys(lqas_results.store),svals(lqas_results.store)     from lqas_results,location        where locationcode = lqas_results.store->'ucode' ), map as ( select dataelementid,valuetype, locationid,activityid, skeys,svals , locationcode, lqas_surveyname, datasetid as dsetid    from elements,dataelement    where datasetid=13 and lower(dataelement.name) = skeys ), inserted as (insert into datavalue (dataelementid,  periodid, valuetime, sourceid, disaggregationvaluecomboid,value, valuetext, lastupdated, created, code, timestamp, campaigntype,datasetid) select dataelementid, QPERIOD, lqas_surveyname, locationid, 3154, case when valuetype ='number' and svals != ''  then CAST(svals as integer) else null END, case when valuetype ='string' then svals else null END, now(), now(), dataelementid || '3154', lqas_surveyname, activityid, dsetid from map RETURNING * ) SELECT count(*) FROM inserted"
    },
    "15": {
         "delquery": "with control_rooms as ( select hstore(apids.QTABLENAME.*) store from apids.QTABLENAME), elements as (   select control_rooms.store->'location_code' as locationcode, control_rooms.store->'cday' as cday, control_rooms.store->'idcampcat' as campaigntype, locationid,control_rooms.store->'id' as room_id ,skeys(control_rooms.store),svals(control_rooms.store)     from control_rooms,location where locationcode = control_rooms.store->'location_code' ), map as  ( select dataelementid,valuetype, locationid,room_id, skeys,svals , locationcode,cday, campaigntype, datasetid as dsetid from elements,dataelement    where datasetid=15 and lower(dataelement.name) = skeys ) , deleted as( DELETE FROM datavalue WHERE  dataelementid IN ( select dataelementid from map) AND  periodid= QPERIOD AND   campaigntype IN (select campaigntype from map) AND sourceid IN (select locationid from map) AND datasetid IN (select dsetid from map) RETURNING * ) SELECT count(*) FROM deleted;",
        "dataset": "lqas_results_prevdose",
        "query": "with lqas_results as (   select hstore(apids.QTABLENAME.*) store from apids.QTABLENAME),elements as (    select lqas_results.store->'ucode' as locationcode , lqas_results.store->'lqas_surveyname' as lqas_surveyname, locationid,lqas_results.store->'activityid' as activityid ,skeys(lqas_results.store),svals(lqas_results.store)     from lqas_results,location        where locationcode = lqas_results.store->'ucode' ), map as ( select dataelementid,valuetype, locationid,activityid, skeys,svals , locationcode, lqas_surveyname, datasetid as dsetid    from elements,dataelement    where datasetid=15 and lower(dataelement.name) = skeys ), inserted as (insert into datavalue (dataelementid,  periodid, valuetime, sourceid, disaggregationvaluecomboid,value, valuetext, lastupdated, created, code, timestamp, campaigntype,datasetid) select dataelementid, QPERIOD, lqas_surveyname, locationid, 3154, case when valuetype ='number' and svals != ''  then CAST(svals as integer) else null END, case when valuetype ='string' then svals else null END, now(), now(), dataelementid || '3154', lqas_surveyname, activityid, dsetid from map RETURNING * ) SELECT count(*) FROM inserted"
    },
    "16": {
         "delquery": "with control_rooms as ( select hstore(apids.QTABLENAME.*) store from apids.QTABLENAME), elements as (   select control_rooms.store->'location_code' as locationcode, control_rooms.store->'cday' as cday, control_rooms.store->'idcampcat' as campaigntype, locationid,control_rooms.store->'id' as room_id ,skeys(control_rooms.store),svals(control_rooms.store)     from control_rooms,location where locationcode = control_rooms.store->'location_code' ), map as  ( select dataelementid,valuetype, locationid,room_id, skeys,svals , locationcode,cday, campaigntype, datasetid as dsetid from elements,dataelement    where datasetid=16 and lower(dataelement.name) = skeys ) , deleted as( DELETE FROM datavalue WHERE  dataelementid IN ( select dataelementid from map) AND  periodid= QPERIOD AND   campaigntype IN (select campaigntype from map) AND sourceid IN (select locationid from map) AND datasetid IN (select dsetid from map) RETURNING * ) SELECT count(*) FROM deleted;",
        "dataset": "lqas_results_prevdose",
        "query": "with lqas_results as (   select hstore(apids.QTABLENAME.*) store from apids.QTABLENAME),elements as (    select lqas_results.store->'ucode' as locationcode , lqas_results.store->'lqas_surveyname' as lqas_surveyname, locationid,lqas_results.store->'activityid' as activityid ,skeys(lqas_results.store),svals(lqas_results.store)     from lqas_results,location        where locationcode = lqas_results.store->'ucode' ), map as ( select dataelementid,valuetype, locationid,activityid, skeys,svals , locationcode, lqas_surveyname, datasetid as dsetid    from elements,dataelement    where datasetid=16 and lower(dataelement.name) = skeys ), inserted as (insert into datavalue (dataelementid,  periodid, valuetime, sourceid, disaggregationvaluecomboid,value, valuetext, lastupdated, created, code, timestamp, campaigntype,datasetid) select dataelementid, QPERIOD, lqas_surveyname, locationid, 3154, case when valuetype ='number' and svals != ''  then CAST(svals as integer) else null END, case when valuetype ='string' then svals else null END, now(), now(), dataelementid || '3154', lqas_surveyname, activityid, dsetid from map RETURNING * ) SELECT count(*) FROM inserted"
    },
    "17": {
         "delquery": "with control_rooms as ( select hstore(apids.QTABLENAME.*) store from apids.QTABLENAME), elements as (   select control_rooms.store->'location_code' as locationcode, control_rooms.store->'cday' as cday, control_rooms.store->'idcampcat' as campaigntype, locationid,control_rooms.store->'id' as room_id ,skeys(control_rooms.store),svals(control_rooms.store)     from control_rooms,location where locationcode = control_rooms.store->'location_code' ), map as  ( select dataelementid,valuetype, locationid,room_id, skeys,svals , locationcode,cday, campaigntype, datasetid as dsetid from elements,dataelement    where datasetid=17 and lower(dataelement.name) = skeys ) , deleted as ( DELETE FROM datavalue WHERE  dataelementid IN ( select dataelementid from map) AND  periodid= QPERIOD AND  valuetime IN (select cday from map) AND campaigntype IN (select campaigntype from map) AND sourceid IN (select locationid from map) AND datasetid IN (select dsetid from map) RETURNING * ) SELECT count(*) FROM deleted",
        "dataset": "catchup",
        "query": "with control_rooms as (    select hstore(apids.QTABLENAME.*) store from apids.QTABLENAME),elements as (    select control_rooms.store->'location_code' as locationcode, control_rooms.store->'cday' as cday,control_rooms.store->'activityid' as activityid, control_rooms.store->'timestamp' as tstamp , control_rooms.store->'idcampcat' as campaigntype, locationid,control_rooms.store->'id' as room_id ,skeys(control_rooms.store), svals(control_rooms.store)     from control_rooms,location        where locationcode = control_rooms.store->'location_code' ), map as ( select dataelementid,valuetype, locationid,room_id, skeys,svals , locationcode, tstamp,cday, campaigntype, datasetid as dsetid, activityid    from elements,dataelement    where datasetid=17 and lower(dataelement.name) = skeys ), inserted as  (insert into datavalue (dataelementid,  periodid, valuetime, sourceid, disaggregationvaluecomboid, value, valuetext, lastupdated, created, code, timestamp, campaigntype,datasetid) select dataelementid, QPERIOD, cday, locationid, 3154, case when valuetype ='number' then CAST(svals as integer) else null END, case when valuetype ='string' then svals else null END,now(), now(),  dataelementid || '3154', tstamp, campaigntype, dsetid from map RETURNING * ) SELECT count(*) FROM inserted"
    }
}