{
    "url": "http://58.65.177.12/api_who/api/get_allneap/5468XE2LN6CzR7qRG041/1/2016",
    "campaign": 1,
    "tablename": "nid1_allneap_2016",
    "datasetid": 9,
    "addDataElement": true,
    "apiProperties": [
        {
            "key": "ID",
            "datatype": "number"
        },
        {
            "key": "IDcampCat",
            "datatype": "number"
        },
        {
            "key": "ActivityID",
            "datatype": "number"
        },
        {
            "key": "Yr",
            "datatype": "number"
        },
        {
            "key": "TimeStamp",
            "datatype": "string"
        },
        {
            "key": "DateAssessment",
            "datatype": "string"
        },
        {
            "key": "DaysBeforeActivity",
            "datatype": "number"
        },
        {
            "key": "TehsilID",
            "datatype": "number"
        },
        {
            "key": "UCID",
            "datatype": "number"
        },
        {
            "key": "targeted",
            "datatype": "number"
        },
        {
            "key": "inaccCh",
            "datatype": "number"
        },
        {
            "key": "areasInacc",
            "datatype": "number"
        },
        {
            "key": "mobileTeams",
            "datatype": "number"
        },
        {
            "key": "fixedTeams",
            "datatype": "number"
        },
        {
            "key": "TransitPoints",
            "datatype": "number"
        },
        {
            "key": "areaIcs",
            "datatype": "number"
        },
        {
            "key": "aicTrained",
            "datatype": "number"
        },
        {
            "key": "zonalSupervisor",
            "datatype": "number"
        },
        {
            "key": "mpValid",
            "datatype": "number"
        },
        {
            "key": "mpfv",
            "datatype": "number"
        },
        {
            "key": "mpfvDstaff",
            "datatype": "number"
        },
        {
            "key": "alltm18yr",
            "datatype": "number"
        },
        {
            "key": "govtWorker",
            "datatype": "number"
        },
        {
            "key": "mtLocalmem",
            "datatype": "number"
        },
        {
            "key": "mtFemale",
            "datatype": "number"
        },
        {
            "key": "alltmTrg",
            "datatype": "number"
        },
        {
            "key": "ddmCard",
            "datatype": "number"
        },
        {
            "key": "UpecHeld",
            "datatype": "number"
        },
        {
            "key": "UpecDate",
            "datatype": "string"
        },
        {
            "key": "ucmo",
            "datatype": "number"
        },
        {
            "key": "ucSecratry",
            "datatype": "number"
        },
        {
            "key": "shoUpec",
            "datatype": "number"
        },
        {
            "key": "scVerified",
            "datatype": "number"
        },
        {
            "key": "remarks",
            "datatype": "string"
        },
        {
            "key": "status",
            "datatype": "number"
        },
        {
            "key": "trash",
            "datatype": "number"
        },
        {
            "key": "location_code",
            "datatype": "number"
        }
    ]
}
