{
    "url": "http://58.65.177.12/api_who/api/get_allcontrollroom/5468XE2LN6CzR7qRG041/2/2016",
    "campaign": 2,
    "tablename": "nid2_allcontrollroom_2016",
    "datasetid": 10,
    "addDataElement": false,
    "apiProperties": [
        {
            "key": "ID",
            "datatype": "number"
        },
        {
            "key": "IDcampCat",
            "datatype": "number"
        },
        {
            "key": "ActivityID",
            "datatype": "number"
        },
        {
            "key": "Yr",
            "datatype": "number"
        },
        {
            "key": "TimeStamp",
            "datatype": "string"
        },
        {
            "key": "Cday",
            "datatype": "number"
        },
        {
            "key": "TehsilID",
            "datatype": "number"
        },
        {
            "key": "UCID",
            "datatype": "number"
        },
        {
            "key": "ccpvTargets",
            "datatype": "number"
        },
        {
            "key": "VaccinationDate",
            "datatype": "string"
        },
        {
            "key": "TeamsRpt",
            "datatype": "number"
        },
        {
            "key": "Age011",
            "datatype": "number"
        },
        {
            "key": "Age1259",
            "datatype": "number"
        },
        {
            "key": "NA",
            "datatype": "number"
        },
        {
            "key": "Refusals",
            "datatype": "number"
        },
        {
            "key": "CovNA",
            "datatype": "number"
        },
        {
            "key": "CovRef",
            "datatype": "number"
        },
        {
            "key": "CovMob",
            "datatype": "number"
        },
        {
            "key": "CovTransit",
            "datatype": "number"
        },
        {
            "key": "HHvisit",
            "datatype": "number"
        },
        {
            "key": "MultipleFamily",
            "datatype": "number"
        },
        {
            "key": "Weakness",
            "datatype": "number"
        },
        {
            "key": "ZeroRt",
            "datatype": "number"
        },
        {
            "key": "OPVGiven",
            "datatype": "number"
        },
        {
            "key": "OPVUsed",
            "datatype": "number"
        },
        {
            "key": "OPVReturned",
            "datatype": "number"
        },
        {
            "key": "Stage34",
            "datatype": "number"
        },
        {
            "key": "Inaccessible",
            "datatype": "number"
        },
        {
            "key": "Remarks",
            "datatype": "string"
        },
        {
            "key": "status",
            "datatype": "number"
        },
        {
            "key": "trash",
            "datatype": "number"
        },
        {
            "key": "location_code",
            "datatype": "number"
        },
        {
            "key": "campcat_name",
            "datatype": "string"
        }
    ]
}
