{
    "url": "http://58.65.177.12/api_who/api/get_allplaningDist/5468XE2LN6CzR7qRG041/2/2016",
    "campaign": 2,
    "tablename": "nid2_allplaningDist_2016",
    "datasetid": 8,
    "addDataElement": false,
    "apiProperties": [
        {
            "key": "ID",
            "datatype": "number"
        },
        {
            "key": "ActivityID",
            "datatype": "number"
        },
        {
            "key": "TimeStamp",
            "datatype": "string"
        },
        {
            "key": "Yr",
            "datatype": "number"
        },
        {
            "key": "prov_id",
            "datatype": "number"
        },
        {
            "key": "div_id",
            "datatype": "number"
        },
        {
            "key": "dist_id",
            "datatype": "number"
        },
        {
            "key": "day1",
            "datatype": "string"
        },
        {
            "key": "dpec",
            "datatype": "string"
        },
        {
            "key": "dco",
            "datatype": "number"
        },
        {
            "key": "edo",
            "datatype": "number"
        },
        {
            "key": "dpo_dpec",
            "datatype": "number"
        },
        {
            "key": "allMember",
            "datatype": "number"
        },
        {
            "key": "inaugrated_by",
            "datatype": "string"
        },
        {
            "key": "OPVVilesReceived",
            "datatype": "number"
        },
        {
            "key": "VaccArival",
            "datatype": "string"
        },
        {
            "key": "TeleSheets",
            "datatype": "number"
        },
        {
            "key": "FingerMarker",
            "datatype": "number"
        },
        {
            "key": "SmMatrialReceived",
            "datatype": "string"
        },
        {
            "key": "Remarks",
            "datatype": "string"
        },
        {
            "key": "status",
            "datatype": "number"
        },
        {
            "key": "trash",
            "datatype": "number"
        },
        {
            "key": "VaccineType",
            "datatype": "string"
        }
    ]
}
