{
    "url": "http://58.65.177.12/api_who/api/get_allplaningDist/5468XE2LN6CzR7qRG041/10/2016",
    "calltype": "IDIMS",
    "campaign": 4,
    "tablename": "snid2_allplaningdist",
    "datasetid": 8,
    "apiProperties": [
        {
            "key": "ID",
            "datatype": "number"
        },
        {
            "key": "ActivityID",
            "datatype": "number"
        },
        {
            "key": "TimeStamp",
            "datatype": "string"
        },
        {
            "key": "Yr",
            "datatype": "number"
        },
        {
            "key": "prov_id",
            "datatype": "number"
        },
        {
            "key": "div_id",
            "datatype": "number"
        },
        {
            "key": "dist_id",
            "datatype": "number"
        },
        {
            "key": "day1",
            "datatype": "string"
        },
        {
            "key": "dpec",
            "datatype": "string"
        },
        {
            "key": "dco",
            "datatype": "number"
        },
        {
            "key": "edo",
            "datatype": "number"
        },
        {
            "key": "dpo_dpec",
            "datatype": "number"
        },
        {
            "key": "allMember",
            "datatype": "number"
        },
        {
            "key": "inaugrated_by",
            "datatype": "string"
        },
        {
            "key": "OPVVilesReceived",
            "datatype": "number"
        },
        {
            "key": "VaccArival",
            "datatype": "string"
        },
        {
            "key": "TeleSheets",
            "datatype": "number"
        },
        {
            "key": "FingerMarker",
            "datatype": "number"
        },
        {
            "key": "SmMatrialReceived",
            "datatype": "string"
        },
        {
            "key": "Remarks",
            "datatype": "string"
        },
        {
            "key": "status",
            "datatype": "number"
        },
        {
            "key": "trash",
            "datatype": "number"
        },
        {
            "key": "VaccineType",
            "datatype": "string"
        }
    ],
    "options": {
        "method": "GET",
        "url": "http://58.65.177.12/api_who/api/get_allplaningDist/5468XE2LN6CzR7qRG041/10/2016",
        "headers": {
            "authorization": "Basic cGFrLWVvYy1kYXNoYm9hcmRAaWRpbXMtYXBpLnBrOnBAa0UwQyM4MHJkIQ==",
            "x-dreamfactory-api-key": "1864d6be0fd8a671c6e3a43ef9d77ad07ae48f1f1d4694c5e8fd49aea201a053"
        }
    }
}
