{
    "calltype": "IDIMS",
    "url": "http://58.65.177.12/api_who/api/get_alllocation/5468XE2LN6CzR7qRG041",
    "apiProperties": [
        {
            "key": "ID",
            "datatype": "number"
        },
        {
            "key": "code",
            "datatype": "number"
        },
        {
            "key": "name",
            "datatype": "string"
        },
        {
            "key": "type",
            "datatype": "string"
        },
        {
            "key": "location_target",
            "datatype": "string"
        },
        {
            "key": "location_status",
            "datatype": "string"
        },
        {
            "key": "location_priority",
            "datatype": "string"
        },
        {
            "key": "hr_status",
            "datatype": "string"
        }
    ],
    "datasetid": 18,
    "options": {
        "method": "GET",
        "url": "http://58.65.177.12/api_who/api/get_alllocation/5468XE2LN6CzR7qRG041",
        "headers": {
            "authorization": "Basic cGFrLWVvYy1kYXNoYm9hcmRAaWRpbXMtYXBpLnBrOnBAa0UwQyM4MHJkIQ==",
            "x-dreamfactory-api-key": "1864d6be0fd8a671c6e3a43ef9d77ad07ae48f1f1d4694c5e8fd49aea201a053"
        }
    }
}
