{
    "name": "Analytics",
    "options": {
        "idInjection": false,
        "postgresql": {
            "schema": "public",
            "table": "analytics"
        }
    },
    "properties": {
        "locationid": {
            "type": "Number",
            "required": false,
            "length": null,
            "precision": 32,
            "scale": 0,
            "postgresql": {
                "columnName": "locationid",
                "dataType": "integer",
                "dataLength": null,
                "dataPrecision": 32,
                "dataScale": 0,
                "nullable": "YES"
            }
        },
        "locationlevel": {
            "type": "Number",
            "required": false,
            "length": null,
            "precision": 32,
            "scale": 0,
            "postgresql": {
                "columnName": "locationlevel",
                "dataType": "integer",
                "dataLength": null,
                "dataPrecision": 32,
                "dataScale": 0,
                "nullable": "YES"
            }
        },
        "dataelementid": {
            "type": "Number",
            "required": false,
            "length": null,
            "precision": 32,
            "scale": 0,
            "postgresql": {
                "columnName": "dataelementid",
                "dataType": "integer",
                "dataLength": null,
                "dataPrecision": 32,
                "dataScale": 0,
                "nullable": "YES"
            }
        },
        "daysx": {
            "type": "String",
            "required": false,
            "length": 1024,
            "precision": null,
            "scale": null,
            "postgresql": {
                "columnName": "daysx",
                "dataType": "character varying",
                "dataLength": 1024,
                "dataPrecision": null,
                "dataScale": null,
                "nullable": "YES"
            }
        },
        "dc": {
            "type": "Number",
            "required": false,
            "length": null,
            "precision": 32,
            "scale": 0,
            "postgresql": {
                "columnName": "dc",
                "dataType": "integer",
                "dataLength": null,
                "dataPrecision": 32,
                "dataScale": 0,
                "nullable": "YES"
            }
        },
        "daysno": {
            "type": "Number",
            "required": false,
            "length": null,
            "precision": 32,
            "scale": 0,
            "postgresql": {
                "columnName": "daysno",
                "dataType": "integer",
                "dataLength": null,
                "dataPrecision": 32,
                "dataScale": 0,
                "nullable": "YES"
            }
        },
        "value": {
            "type": "String",
            "required": false,
            "length": 1024,
            "precision": null,
            "scale": null,
            "postgresql": {
                "columnName": "value",
                "dataType": "character varying",
                "dataLength": 1024,
                "dataPrecision": null,
                "dataScale": null,
                "nullable": "YES"
            }
        },
        "textvalue": {
            "type": "String",
            "required": false,
            "length": 1024,
            "precision": null,
            "scale": null,
            "postgresql": {
                "columnName": "textvalue",
                "dataType": "character varying",
                "dataLength": 1024,
                "dataPrecision": null,
                "dataScale": null,
                "nullable": "YES"
            }
        },
        "level1": {
            "type": "String",
            "required": false,
            "length": 1024,
            "precision": null,
            "scale": null,
            "postgresql": {
                "columnName": "level1",
                "dataType": "character varying",
                "dataLength": 1024,
                "dataPrecision": null,
                "dataScale": null,
                "nullable": "YES"
            }
        },
        "level2": {
            "type": "String",
            "required": false,
            "length": 1024,
            "precision": null,
            "scale": null,
            "postgresql": {
                "columnName": "level2",
                "dataType": "character varying",
                "dataLength": 1024,
                "dataPrecision": null,
                "dataScale": null,
                "nullable": "YES"
            }
        },
        "level3": {
            "type": "String",
            "required": false,
            "length": 1024,
            "precision": null,
            "scale": null,
            "postgresql": {
                "columnName": "level3",
                "dataType": "character varying",
                "dataLength": 1024,
                "dataPrecision": null,
                "dataScale": null,
                "nullable": "YES"
            }
        },
        "level4": {
            "type": "String",
            "required": false,
            "length": 1024,
            "precision": null,
            "scale": null,
            "postgresql": {
                "columnName": "level4",
                "dataType": "character varying",
                "dataLength": 1024,
                "dataPrecision": null,
                "dataScale": null,
                "nullable": "YES"
            }
        },
        "level5": {
            "type": "String",
            "required": false,
            "length": 1024,
            "precision": null,
            "scale": null,
            "postgresql": {
                "columnName": "level5",
                "dataType": "character varying",
                "dataLength": 1024,
                "dataPrecision": null,
                "dataScale": null,
                "nullable": "YES"
            }
        },
        "ffd2e0c0112411e69295975a4783e4b5                           ": {
            "type": "String",
            "required": false,
            "length": 1024,
            "precision": null,
            "scale": null,
            "postgresql": {
                "columnName": "ffd2e0c0-1124-11e6-9295-975a4783e4b5                           ",
                "dataType": "character varying",
                "dataLength": 1024,
                "dataPrecision": null,
                "dataScale": null,
                "nullable": "YES"
            }
        },
        "36f4ff7a112511e6A5f4Bb56faddce1b                           ": {
            "type": "String",
            "required": false,
            "length": 1024,
            "precision": null,
            "scale": null,
            "postgresql": {
                "columnName": "36f4ff7a-1125-11e6-a5f4-bb56faddce1b                           ",
                "dataType": "character varying",
                "dataLength": 1024,
                "dataPrecision": null,
                "dataScale": null,
                "nullable": "YES"
            }
        },
        "monthly": {
            "type": "String",
            "required": false,
            "length": 1024,
            "precision": null,
            "scale": null,
            "postgresql": {
                "columnName": "monthly",
                "dataType": "character varying",
                "dataLength": 1024,
                "dataPrecision": null,
                "dataScale": null,
                "nullable": "YES"
            }
        },
        "daily": {
            "type": "String",
            "required": false,
            "length": 1024,
            "precision": null,
            "scale": null,
            "postgresql": {
                "columnName": "daily",
                "dataType": "character varying",
                "dataLength": 1024,
                "dataPrecision": null,
                "dataScale": null,
                "nullable": "YES"
            }
        },
        "weekly": {
            "type": "String",
            "required": false,
            "length": 1024,
            "precision": null,
            "scale": null,
            "postgresql": {
                "columnName": "weekly",
                "dataType": "character varying",
                "dataLength": 1024,
                "dataPrecision": null,
                "dataScale": null,
                "nullable": "YES"
            }
        },
        "bimonthly": {
            "type": "String",
            "required": false,
            "length": 1024,
            "precision": null,
            "scale": null,
            "postgresql": {
                "columnName": "bimonthly",
                "dataType": "character varying",
                "dataLength": 1024,
                "dataPrecision": null,
                "dataScale": null,
                "nullable": "YES"
            }
        },
        "quartrly": {
            "type": "String",
            "required": false,
            "length": 1024,
            "precision": null,
            "scale": null,
            "postgresql": {
                "columnName": "quartrly",
                "dataType": "character varying",
                "dataLength": 1024,
                "dataPrecision": null,
                "dataScale": null,
                "nullable": "YES"
            }
        },
        "sixmonthly": {
            "type": "String",
            "required": false,
            "length": 1024,
            "precision": null,
            "scale": null,
            "postgresql": {
                "columnName": "sixmonthly",
                "dataType": "character varying",
                "dataLength": 1024,
                "dataPrecision": null,
                "dataScale": null,
                "nullable": "YES"
            }
        },
        "yearly": {
            "type": "String",
            "required": false,
            "length": 1024,
            "precision": null,
            "scale": null,
            "postgresql": {
                "columnName": "yearly",
                "dataType": "character varying",
                "dataLength": 1024,
                "dataPrecision": null,
                "dataScale": null,
                "nullable": "YES"
            }
        },
        "id": {
            "type": "Number",
            "required": true,
            "length": null,
            "precision": 32,
            "scale": 0,
            "id": 1,
            "postgresql": {
                "columnName": "id",
                "dataType": "integer",
                "dataLength": null,
                "dataPrecision": 32,
                "dataScale": 0,
                "nullable": "NO"
            }
        }
    }
}
