{
    "name": "CronMigrationLog",
    "options": {
        "idInjection": false,
        "postgresql": {
            "schema": "public",
            "table": "cron_migration_log"
        }
    },
    "properties": {
        "apiLength": {
            "type": "Number",
            "required": false,
            "length": null,
            "precision": 32,
            "scale": 0,
            "postgresql": {
                "columnName": "api_length",
                "dataType": "integer",
                "dataLength": null,
                "dataPrecision": 32,
                "dataScale": 0,
                "nullable": "YES"
            }
        },
        "columnsMigrated": {
            "type": "Number",
            "required": false,
            "length": null,
            "precision": 32,
            "scale": 0,
            "postgresql": {
                "columnName": "columns_migrated",
                "dataType": "integer",
                "dataLength": null,
                "dataPrecision": 32,
                "dataScale": 0,
                "nullable": "YES"
            }
        },
        "id": {
            "type": "Number",
            "required": false,
            "length": null,
            "precision": 32,
            "scale": 0,
            "postgresql": {
                "columnName": "id",
                "dataType": "integer",
                "dataLength": null,
                "dataPrecision": 32,
                "dataScale": 0,
                "nullable": "YES"
            }
        },
        "url": {
            "type": "String",
            "required": false,
            "length": null,
            "precision": null,
            "scale": null,
            "postgresql": {
                "columnName": "url",
                "dataType": "text",
                "dataLength": null,
                "dataPrecision": null,
                "dataScale": null,
                "nullable": "YES"
            }
        },
        "tableName": {
            "type": "String",
            "required": false,
            "length": null,
            "precision": null,
            "scale": null,
            "postgresql": {
                "columnName": "table_name",
                "dataType": "text",
                "dataLength": null,
                "dataPrecision": null,
                "dataScale": null,
                "nullable": "YES"
            }
        },
        "error": {
            "type": "String",
            "required": false,
            "length": null,
            "precision": null,
            "scale": null,
            "postgresql": {
                "columnName": "error",
                "dataType": "text",
                "dataLength": null,
                "dataPrecision": null,
                "dataScale": null,
                "nullable": "YES"
            }
        },
        "description": {
            "type": "String",
            "required": false,
            "length": null,
            "precision": null,
            "scale": null,
            "postgresql": {
                "columnName": "description",
                "dataType": "text",
                "dataLength": null,
                "dataPrecision": null,
                "dataScale": null,
                "nullable": "YES"
            }
        },
        "lastMigration": {
            "type": "String",
            "required": false,
            "length": null,
            "precision": null,
            "scale": null,
            "postgresql": {
                "columnName": "last_migration",
                "dataType": "text",
                "dataLength": null,
                "dataPrecision": null,
                "dataScale": null,
                "nullable": "YES"
            }
        },
        "timeTakenSec": {
            "type": "String",
            "required": false,
            "length": null,
            "precision": null,
            "scale": null,
            "postgresql": {
                "columnName": "time_taken_sec",
                "dataType": "text",
                "dataLength": null,
                "dataPrecision": null,
                "dataScale": null,
                "nullable": "YES"
            }
        },
        "query": {
            "type": "String",
            "required": false,
            "length": null,
            "precision": null,
            "scale": null,
            "postgresql": {
                "columnName": "query",
                "dataType": "character varying",
                "dataLength": null,
                "dataPrecision": null,
                "dataScale": null,
                "nullable": "YES"
            }
        },
        "delquery": {
            "type": "String",
            "required": false,
            "length": null,
            "precision": null,
            "scale": null,
            "postgresql": {
                "columnName": "delquery",
                "dataType": "character varying",
                "dataLength": null,
                "dataPrecision": null,
                "dataScale": null,
                "nullable": "YES"
            }
        }
    }
}
