{
    "name": "Datavalue",
    "options": {
        "idInjection": false,
        "postgresql": {
            "schema": "public",
            "table": "datavalue"
        }
    },
    "properties": {
        "dataelementid": {
            "type": "Number",
            "required": true,
            "length": null,
            "precision": 32,
            "scale": 0,
            "postgresql": {
                "columnName": "dataelementid",
                "dataType": "integer",
                "dataLength": null,
                "dataPrecision": 32,
                "dataScale": 0,
                "nullable": "NO"
            }
        },
        "periodid": {
            "type": "Number",
            "required": true,
            "length": null,
            "precision": 32,
            "scale": 0,
            "postgresql": {
                "columnName": "periodid",
                "dataType": "integer",
                "dataLength": null,
                "dataPrecision": 32,
                "dataScale": 0,
                "nullable": "NO"
            }
        },
        "sourceid": {
            "type": "String",
            "required": true,
            "length": 1024,
            "precision": null,
            "scale": null,
            "postgresql": {
                "columnName": "sourceid",
                "dataType": "character varying",
                "dataLength": 1024,
                "dataPrecision": null,
                "dataScale": null,
                "nullable": "NO"
            }
        },
        "valuetime": {
            "type": "String",
            "required": true,
            "length": 1024,
            "precision": null,
            "scale": null,
            "postgresql": {
                "columnName": "valuetime",
                "dataType": "character varying",
                "dataLength": 1024,
                "dataPrecision": null,
                "dataScale": null,
                "nullable": "NO"
            }
        },
        "disaggregationvaluecomboid": {
            "type": "Number",
            "required": true,
            "length": null,
            "precision": 32,
            "scale": 0,
            "postgresql": {
                "columnName": "disaggregationvaluecomboid",
                "dataType": "integer",
                "dataLength": null,
                "dataPrecision": 32,
                "dataScale": 0,
                "nullable": "NO"
            }
        },
        "value": {
            "type": "String",
            "required": false,
            "length": 50000,
            "precision": null,
            "scale": null,
            "postgresql": {
                "columnName": "value",
                "dataType": "character varying",
                "dataLength": 50000,
                "dataPrecision": null,
                "dataScale": null,
                "nullable": "YES"
            }
        },
        "lastupdated": {
            "type": "String",
            "required": false,
            "length": null,
            "precision": null,
            "scale": null,
            "postgresql": {
                "columnName": "lastupdated",
                "dataType": "timestamp without time zone",
                "dataLength": null,
                "dataPrecision": null,
                "dataScale": null,
                "nullable": "YES"
            }
        },
        "created": {
            "type": "String",
            "required": false,
            "length": null,
            "precision": null,
            "scale": null,
            "postgresql": {
                "columnName": "created",
                "dataType": "timestamp without time zone",
                "dataLength": null,
                "dataPrecision": null,
                "dataScale": null,
                "nullable": "YES"
            }
        },
        "code": {
            "type": "String",
            "required": false,
            "length": 1024,
            "precision": null,
            "scale": null,
            "postgresql": {
                "columnName": "code",
                "dataType": "character varying",
                "dataLength": 1024,
                "dataPrecision": null,
                "dataScale": null,
                "nullable": "YES"
            }
        },
        "id": {
            "type": "Number",
            "required": true,
            "length": null,
            "precision": 32,
            "scale": 0,
            "postgresql": {
                "columnName": "id",
                "dataType": "integer",
                "dataLength": null,
                "dataPrecision": 32,
                "dataScale": 0,
                "nullable": "NO"
            }
        }
    }
}
