{
    "name": "Dataset",
    "options": {
        "idInjection": false,
        "postgresql": {
            "schema": "public",
            "table": "dataset"
        }
    },
    "properties": {
        "datasetid": {
            "type": "Number",
            "required": false,
            "length": null,
            "generated" : true,
            "precision": 32,
            "scale": 0,
            "id": 1,
            "postgresql": {
                "columnName": "datasetid",
                "dataType": "integer",
                "dataLength": null,
                "dataPrecision": 32,
                "dataScale": 0,
                "nullable": "NO"
            }
        },
        "name": {
            "type": "String",
            "required": true,
            "length": 230,
            "precision": null,
            "scale": null,
            "postgresql": {
                "columnName": "name",
                "dataType": "character varying",
                "dataLength": 230,
                "dataPrecision": null,
                "dataScale": null,
                "nullable": "NO"
            }
        },
        "periodtypeid": {
            "type": "Number",
            "required": false,
            "length": null,
            "precision": 32,
            "scale": 0,
            "postgresql": {
                "columnName": "periodtypeid",
                "dataType": "integer",
                "dataLength": null,
                "dataPrecision": 32,
                "dataScale": 0,
                "nullable": "YES"
            }
        },
        "shortname": {
            "type": "String",
            "required": false,
            "length": 50,
            "precision": null,
            "scale": null,
            "postgresql": {
                "columnName": "shortname",
                "dataType": "character varying",
                "dataLength": 50,
                "dataPrecision": null,
                "dataScale": null,
                "nullable": "YES"
            }
        },
        "code": {
            "type": "String",
            "required": false,
            "length": 60,
            "precision": null,
            "scale": null,
            "postgresql": {
                "columnName": "code",
                "dataType": "character varying",
                "dataLength": 60,
                "dataPrecision": null,
                "dataScale": null,
                "nullable": "YES"
            }
        },
        "version": {
            "type": "Number",
            "required": false,
            "length": null,
            "precision": 32,
            "scale": 0,
            "postgresql": {
                "columnName": "version",
                "dataType": "integer",
                "dataLength": null,
                "dataPrecision": 32,
                "dataScale": 0,
                "nullable": "YES"
            }
        },
        "lastupdated": {
            "type": "String",
            "required": false,
            "length": null,
            "precision": null,
            "scale": null,
            "postgresql": {
                "columnName": "lastupdated",
                "dataType": "timestamp without time zone",
                "dataLength": null,
                "dataPrecision": null,
                "dataScale": null,
                "nullable": "YES"
            }
        },
        "description": {
            "type": "String",
            "required": false,
            "length": null,
            "precision": null,
            "scale": null,
            "postgresql": {
                "columnName": "description",
                "dataType": "text",
                "dataLength": null,
                "dataPrecision": null,
                "dataScale": null,
                "nullable": "YES"
            }
        },
        "created": {
            "type": "String",
            "required": false,
            "length": null,
            "precision": null,
            "scale": null,
            "postgresql": {
                "columnName": "created",
                "dataType": "timestamp without time zone",
                "dataLength": null,
                "dataPrecision": null,
                "dataScale": null,
                "nullable": "YES"
            }
        }
    }
}
