{
    "name": "IdimsAllLocations2016",
    "options": {
        "idInjection": false,
        "postgresql": {
            "schema": "API-DS",
            "table": "idims_all_locations_2016"
        }
    },
    "properties": {
        "code": {
            "type": "String",
            "required": false,
            "length": 1024,
            "precision": null,
            "scale": null,
            "postgresql": {
                "columnName": "code",
                "dataType": "character varying",
                "dataLength": 1024,
                "dataPrecision": null,
                "dataScale": null,
                "nullable": "YES"
            }
        },
        "name": {
            "type": "String",
            "required": false,
            "length": 1024,
            "precision": null,
            "scale": null,
            "postgresql": {
                "columnName": "name",
                "dataType": "character varying",
                "dataLength": 1024,
                "dataPrecision": null,
                "dataScale": null,
                "nullable": "YES"
            }
        },
        "type": {
            "type": "String",
            "required": false,
            "length": 1024,
            "precision": null,
            "scale": null,
            "postgresql": {
                "columnName": "type",
                "dataType": "character varying",
                "dataLength": 1024,
                "dataPrecision": null,
                "dataScale": null,
                "nullable": "YES"
            }
        },
        "locationTarget": {
            "type": "String",
            "required": false,
            "length": 1024,
            "precision": null,
            "scale": null,
            "postgresql": {
                "columnName": "location_target",
                "dataType": "character varying",
                "dataLength": 1024,
                "dataPrecision": null,
                "dataScale": null,
                "nullable": "YES"
            }
        },
        "locationStatus": {
            "type": "String",
            "required": false,
            "length": 1024,
            "precision": null,
            "scale": null,
            "postgresql": {
                "columnName": "location_status",
                "dataType": "character varying",
                "dataLength": 1024,
                "dataPrecision": null,
                "dataScale": null,
                "nullable": "YES"
            }
        },
        "locationPriority": {
            "type": "String",
            "required": false,
            "length": 1024,
            "precision": null,
            "scale": null,
            "postgresql": {
                "columnName": "location_priority",
                "dataType": "character varying",
                "dataLength": 1024,
                "dataPrecision": null,
                "dataScale": null,
                "nullable": "YES"
            }
        },
        "hrStatus": {
            "type": "String",
            "required": false,
            "length": 1024,
            "precision": null,
            "scale": null,
            "postgresql": {
                "columnName": "hr_status",
                "dataType": "character varying",
                "dataLength": 1024,
                "dataPrecision": null,
                "dataScale": null,
                "nullable": "YES"
            }
        },
        "id": {
            "type": "Number",
            "required": true,
            "length": null,
            "precision": 32,
            "scale": 0,
            "id": 1,
            "postgresql": {
                "columnName": "id",
                "dataType": "integer",
                "dataLength": null,
                "dataPrecision": 32,
                "dataScale": 0,
                "nullable": "NO"
            }
        }
    }
}
