{
    "name": "IdimsApiCalls",
    "options": {
        "idInjection": false,
        "postgresql": {
            "schema": "APIDS",
            "table": "idims_api_calls"
        }
    },
    "properties": {
        "tablename": {
            "type": "String",
            "required": false,
            "length": null,
            "precision": null,
            "scale": null,
            "postgresql": {
                "columnName": "tablename",
                "dataType": "character varying",
                "dataLength": null,
                "dataPrecision": null,
                "dataScale": null,
                "nullable": "YES"
            }
        },
        "url": {
            "type": "String",
            "required": false,
            "length": null,
            "precision": null,
            "scale": null,
            "postgresql": {
                "columnName": "url",
                "dataType": "character varying",
                "dataLength": null,
                "dataPrecision": null,
                "dataScale": null,
                "nullable": "YES"
            }
        },
        "campaign": {
            "type": "String",
            "required": false,
            "length": null,
            "precision": null,
            "scale": null,
            "postgresql": {
                "columnName": "campaign",
                "dataType": "character varying",
                "dataLength": null,
                "dataPrecision": null,
                "dataScale": null,
                "nullable": "YES"
            }
        },
        "id": {
            "type": "Number",
            "required": true,
            "length": null,
            "precision": 32,
            "scale": 0,
            "id": 1,
            "postgresql": {
                "columnName": "id",
                "dataType": "integer",
                "dataLength": null,
                "dataPrecision": 32,
                "dataScale": 0,
                "nullable": "NO"
            }
        },
        "datasetid": {
            "type": "Number",
            "required": false,
            "length": null,
            "precision": 32,
            "scale": 0,
            "postgresql": {
                "columnName": "datasetid",
                "dataType": "integer",
                "dataLength": null,
                "dataPrecision": 32,
                "dataScale": 0,
                "nullable": "YES"
            }
        }
    }
}
