{
    "name": "Locationgroupmembers",
    "options": {
        "idInjection": false,
        "postgresql": {
            "schema": "public",
            "table": "locationgroupmembers"
        }
    },
    "properties": {
        "locationgroupid": {
            "type": "Number",
            "required": true,
            "length": null,
            "precision": 32,
            "scale": 0,
            "id": 1,
            "postgresql": {
                "columnName": "locationgroupid",
                "dataType": "integer",
                "dataLength": null,
                "dataPrecision": 32,
                "dataScale": 0,
                "nullable": "NO"
            }
        },
        "locationid": {
            "type": "Number",
            "required": true,
            "length": null,
            "precision": 32,
            "scale": 0,
            "id": 2,
            "postgresql": {
                "columnName": "locationid",
                "dataType": "integer",
                "dataLength": null,
                "dataPrecision": 32,
                "dataScale": 0,
                "nullable": "NO"
            }
        }
    }
}
