{
    "name": "Period",
    "options": {
        "idInjection": false,
        "postgresql": {
            "schema": "public",
            "table": "period"
        }
    },
    "properties": {
        "periodid": {
            "type": "Number",
            "required": false,
            "length": null,
            "precision": 32,
            "generated": true,
            "scale": 0,
            "id": 1,
            "postgresql": {
                "columnName": "periodid",
                "dataType": "integer",
                "dataLength": null,
                "dataPrecision": 32,
                "dataScale": 0,
                "nullable": "NO"
            }
        },
        "periodtypeid": {
            "type": "Number",
            "required": false,
            "length": null,
            "precision": 32,
            "scale": 0,
            "postgresql": {
                "columnName": "periodtypeid",
                "dataType": "integer",
                "dataLength": null,
                "dataPrecision": 32,
                "dataScale": 0,
                "nullable": "YES"
            }
        },
        "startdate": {
            "type": "Date",
            "required": true,
            "length": null,
            "precision": null,
            "scale": null,
            "postgresql": {
                "columnName": "startdate",
                "dataType": "date",
                "dataLength": null,
                "dataPrecision": null,
                "dataScale": null,
                "nullable": "NO"
            }
        },
        "enddate": {
            "type": "Date",
            "required": true,
            "length": null,
            "precision": null,
            "scale": null,
            "postgresql": {
                "columnName": "enddate",
                "dataType": "date",
                "dataLength": null,
                "dataPrecision": null,
                "dataScale": null,
                "nullable": "NO"
            }
        },
        "createdBy": {
            "type": "Number",
            "required": true,
            "length": null,
            "precision": 32,
            "scale": 0,
            "postgresql": {
                "columnName": "created_by",
                "dataType": "integer",
                "dataLength": null,
                "dataPrecision": 32,
                "dataScale": 0,
                "nullable": "NO"
            }
        },
        "code": {
            "type": "String",
            "required": false,
            "length": null,
            "precision": null,
            "scale": null,
            "postgresql": {
                "columnName": "code",
                "dataType": "character varying",
                "dataLength": null,
                "dataPrecision": null,
                "dataScale": null,
                "nullable": "YES"
            }
        },
        "year": {
            "type": "Number",
            "required": false,
            "length": null,
            "precision": 32,
            "scale": 0,
            "postgresql": {
                "columnName": "year",
                "dataType": "integer",
                "dataLength": null,
                "dataPrecision": 32,
                "dataScale": 0,
                "nullable": "YES"
            }
        },
        "month": {
            "type": "Number",
            "required": false,
            "length": null,
            "precision": 32,
            "scale": 0,
            "postgresql": {
                "columnName": "month",
                "dataType": "integer",
                "dataLength": null,
                "dataPrecision": 32,
                "dataScale": 0,
                "nullable": "YES"
            }
        },
        "createdDate": {
            "type": "Date",
            "required": false,
            "length": null,
            "precision": null,
            "scale": null,
            "postgresql": {
                "columnName": "created_date",
                "dataType": "date",
                "dataLength": null,
                "dataPrecision": null,
                "dataScale": null,
                "nullable": "YES"
            }
        }
    }
}
