{
    "name": "Trackedentityattributevalue",
    "options": {
        "idInjection": false,
        "postgresql": {
            "schema": "public",
            "table": "trackedentityattributevalue"
        }
    },
    "properties": {
        "trackedentityinstanceid": {
            "type": "Number",
            "required": true,
            "length": null,
            "precision": 32,
            "scale": 0,
            "id": 1,
            "postgresql": {
                "columnName": "trackedentityinstanceid",
                "dataType": "integer",
                "dataLength": null,
                "dataPrecision": 32,
                "dataScale": 0,
                "nullable": "NO"
            }
        },
        "trackedentityattributeid": {
            "type": "Number",
            "required": true,
            "length": null,
            "precision": 32,
            "scale": 0,
            "id": 2,
            "postgresql": {
                "columnName": "trackedentityattributeid",
                "dataType": "integer",
                "dataLength": null,
                "dataPrecision": 32,
                "dataScale": 0,
                "nullable": "NO"
            }
        },
        "value": {
            "type": "String",
            "required": false,
            "length": 255,
            "precision": null,
            "scale": null,
            "postgresql": {
                "columnName": "value",
                "dataType": "character varying",
                "dataLength": 255,
                "dataPrecision": null,
                "dataScale": null,
                "nullable": "YES"
            }
        }
    }
}
