{
    "url": "http://58.65.177.12/api_who/api/get_allaftercatchup/5468XE2LN6CzR7qRG041/3/2016",
    "type": "allaftercatchup",
    "prefix": "acu",
    "campaign": "NID-MAY-16",
    "apiProperties": [
        {
            "key": "ID",
            "datatype": "number"
        },
        {
            "key": "IDcampCat",
            "datatype": "number"
        },
        {
            "key": "ActivityID",
            "datatype": "number"
        },
        {
            "key": "TimeStamp",
            "datatype": "Date"
        },
        {
            "key": "Yr",
            "datatype": "number"
        },
        {
            "key": "TehsilID",
            "datatype": "number"
        },
        {
            "key": "UCID",
            "datatype": "number"
        },
        {
            "key": "cday",
            "datatype": "number"
        },
        {
            "key": "VaccinationDate",
            "datatype": "Date"
        },
        {
            "key": "NACov",
            "datatype": "number"
        },
        {
            "key": "RefCov",
            "datatype": "number"
        },
        {
            "key": "UnRecCov",
            "datatype": "number"
        },
        {
            "key": "OPVGiven",
            "datatype": "number"
        },
        {
            "key": "OPVUsed",
            "datatype": "number"
        },
        {
            "key": "OPVReturned",
            "datatype": "number"
        },
        {
            "key": "Remarks",
            "datatype": "string"
        },
        {
            "key": "status",
            "datatype": "number"
        },
        {
            "key": "trash",
            "datatype": "number"
        },
        {
            "key": "location_code",
            "datatype": "number"
        }
    ]
}
