{
    "url": "http://58.65.177.12/api_who/api/get_allcatchup/5468XE2LN6CzR7qRG041/4/2016",
    "type": "allcatchup",
    "prefix": "cu",
    "campaign": "NID-SEP-16",
    "apiProperties": [
        {
            "key": "ID",
            "datatype": "number"
        },
        {
            "key": "IDcampCat",
            "datatype": "number"
        },
        {
            "key": "ActivityID",
            "datatype": "number"
        },
        {
            "key": "TimeStamp",
            "datatype": "Date"
        },
        {
            "key": "Yr",
            "datatype": "number"
        },
        {
            "key": "TehsilID",
            "datatype": "number"
        },
        {
            "key": "UCID",
            "datatype": "number"
        },
        {
            "key": "Cday",
            "datatype": "number"
        },
        {
            "key": "NA_Cov",
            "datatype": "number"
        },
        {
            "key": "Ref_Cov",
            "datatype": "number"
        },
        {
            "key": "UnRecorded_Cov",
            "datatype": "number"
        },
        {
            "key": "TransitPoint_Cov",
            "datatype": "number"
        },
        {
            "key": "OPVGiven",
            "datatype": "number"
        },
        {
            "key": "OPVUsed",
            "datatype": "number"
        },
        {
            "key": "OPVReturned",
            "datatype": "number"
        },
        {
            "key": "status",
            "datatype": "number"
        },
        {
            "key": "trash",
            "datatype": "number"
        },
        {
            "key": "location_code",
            "datatype": "number"
        }
    ]
}
