{
    "url": "http://idims.eoc.gov.pk/api/v2/idims_db/_table/vw_lqas_results_reasonsrefusal?filter=CalcActivityID%3D2016-SNID3",
    "type": "lqas_results_reasonsrefusal",
    "campaign": "SNID-JUL-16",
    "prefix": "lq",
    "catagory": "LQAS",
    "apiProperties": [
        {
            "key": "ActivityID",
            "datatype": "number"
        },
        {
            "key": "Activity",
            "datatype": "string"
        },
        {
            "key": "CalcActivityID",
            "datatype": "string"
        },
        {
            "key": "Survey_ID",
            "datatype": "number"
        },
        {
            "key": "LQAS_SurveyName",
            "datatype": "string"
        },
        {
            "key": "Pid",
            "datatype": "number"
        },
        {
            "key": "Pcode",
            "datatype": "number"
        },
        {
            "key": "Province",
            "datatype": "string"
        },
        {
            "key": "Did",
            "datatype": "number"
        },
        {
            "key": "Dcode",
            "datatype": "number"
        },
        {
            "key": "District",
            "datatype": "string"
        },
        {
            "key": "Tid",
            "datatype": "number"
        },
        {
            "key": "Tcode",
            "datatype": "number"
        },
        {
            "key": "Tehsil",
            "datatype": "string"
        },
        {
            "key": "UCid",
            "datatype": "number"
        },
        {
            "key": "Ucode",
            "datatype": "number"
        },
        {
            "key": "UC",
            "datatype": "string"
        },
        {
            "key": "Demand",
            "datatype": "number"
        },
        {
            "key": "Fatigue",
            "datatype": "number"
        },
        {
            "key": "HospDr",
            "datatype": "number"
        },
        {
            "key": "Religion",
            "datatype": "number"
        },
        {
            "key": "Rumour",
            "datatype": "number"
        },
        {
            "key": "Security",
            "datatype": "number"
        },
        {
            "key": "Sick",
            "datatype": "number"
        },
        {
            "key": "Unknown",
            "datatype": "number"
        },
        {
            "key": "GrandTotal",
            "datatype": "number"
        }
    ]
}
