{
    "delimiter": ",",
    "noheader": false,
    "updateduplicate": false,
    "skipduplicate": true,
    "target": [
        "id",
        "country",
        "province",
        "pcode",
        "district",
        "tehsil",
        "tcode",
        "uc",
        "mp",
        "mptype",
        "name",
        "address",
        "sex",
        "age",
        "stools"
    ],
    "primarykey": "id",
    "name": "csv_afp_template",
    "nature": "csv",
    "file": "1461937688374-598.csv",
    "model": "Afp",
    "source": [
        "id",
        "country",
        "province",
        "pcode",
        "district",
        "tehsil",
        "tcode",
        "uc",
        "mp",
        "mptype",
        "name",
        "address",
        "sex",
        "age",
        "stools"
    ]
}
