{
    "datasetid": 11,
    "url": "http://58.65.177.12/api_who/api/get_allmarketSurvey/5468XE2LN6CzR7qRG041/3/2016",
    "campaign": 3,
    "tablename": "nid3_allmarketSurvey_2016",
    "addDataElement": false,
    "apiProperties": [
        {
            "key": "ID",
            "datatype": "number"
        },
        {
            "key": "IDcampCat",
            "datatype": "number"
        },
        {
            "key": "ActivityID",
            "datatype": "number"
        },
        {
            "key": "TimeStamp",
            "datatype": "string"
        },
        {
            "key": "Yr",
            "datatype": "number"
        },
        {
            "key": "div_id",
            "datatype": "number"
        },
        {
            "key": "DistID",
            "datatype": "number"
        },
        {
            "key": "TehsilID",
            "datatype": "number"
        },
        {
            "key": "UCID",
            "datatype": "number"
        },
        {
            "key": "FMC011M",
            "datatype": "number"
        },
        {
            "key": "FMC1259M",
            "datatype": "number"
        },
        {
            "key": "FMV011M",
            "datatype": "number"
        },
        {
            "key": "FMV1259M",
            "datatype": "number"
        },
        {
            "key": "NT_HMissed",
            "datatype": "number"
        },
        {
            "key": "VBMV",
            "datatype": "number"
        },
        {
            "key": "NA",
            "datatype": "number"
        },
        {
            "key": "Refusals",
            "datatype": "number"
        },
        {
            "key": "childSleep",
            "datatype": "number"
        },
        {
            "key": "VBNFM",
            "datatype": "number"
        },
        {
            "key": "Others",
            "datatype": "number"
        },
        {
            "key": "RiskOfPolio",
            "datatype": "number"
        },
        {
            "key": "NT_CMissed",
            "datatype": "number"
        },
        {
            "key": "NT_NoReVisit",
            "datatype": "number"
        },
        {
            "key": "Ref_Religious",
            "datatype": "number"
        },
        {
            "key": "Ref_MConcept",
            "datatype": "number"
        },
        {
            "key": "Ref_Demand",
            "datatype": "number"
        },
        {
            "key": "Qlty_Team",
            "datatype": "number"
        },
        {
            "key": "Ref_Other",
            "datatype": "number"
        },
        {
            "key": "Remarks",
            "datatype": "string"
        },
        {
            "key": "status",
            "datatype": "number"
        },
        {
            "key": "trash",
            "datatype": "number"
        },
        {
            "key": "location_code",
            "datatype": "number"
        }
    ]
}
