{
    "datasetid": 13,
    "url": "http://idims.eoc.gov.pk/api/v2/idims_db/_table/vw_lqas_results_prevdose?filter=Activity%20%3D%20SNID2",
    "campaign": 4,
    "tablename": "snid2_lqas_results_prevdose_2016",
    "addDataElement": true,
    "calltype": "LQAS",
    "apiProperties": [
        {
            "key": "ActivityID",
            "datatype": "number"
        },
        {
            "key": "Activity",
            "datatype": "string"
        },
        {
            "key": "Survey_ID",
            "datatype": "number"
        },
        {
            "key": "LQAS_SurveyName",
            "datatype": "string"
        },
        {
            "key": "Pid",
            "datatype": "number"
        },
        {
            "key": "Pcode",
            "datatype": "number"
        },
        {
            "key": "Province",
            "datatype": "string"
        },
        {
            "key": "Did",
            "datatype": "number"
        },
        {
            "key": "Dcode",
            "datatype": "number"
        },
        {
            "key": "District",
            "datatype": "string"
        },
        {
            "key": "Tid",
            "datatype": "number"
        },
        {
            "key": "Tcode",
            "datatype": "number"
        },
        {
            "key": "Tehsil",
            "datatype": "string"
        },
        {
            "key": "UCid",
            "datatype": "number"
        },
        {
            "key": "Ucode",
            "datatype": "number"
        },
        {
            "key": "UC",
            "datatype": "string"
        },
        {
            "key": "Demand",
            "datatype": "number"
        },
        {
            "key": "Fatigue",
            "datatype": "number"
        },
        {
            "key": "HospDr",
            "datatype": "number"
        },
        {
            "key": "Religion",
            "datatype": "number"
        },
        {
            "key": "Rumour",
            "datatype": "number"
        },
        {
            "key": "Security",
            "datatype": "number"
        },
        {
            "key": "Sick",
            "datatype": "number"
        },
        {
            "key": "Unknown",
            "datatype": "number"
        },
        {
            "key": "GrandTotal",
            "datatype": "number"
        }
    ],
    "options": {
        "method": "GET",
        "url": "http://idims.eoc.gov.pk/api/v2/idims_db/_table/vw_lqas_results_prevdose?filter=Activity%20%3D%20SNID2",
        "headers": {
            "authorization": "Basic cGFrLWVvYy1kYXNoYm9hcmRAaWRpbXMtYXBpLnBrOnBAa0UwQyM4MHJkIQ==",
            "x-dreamfactory-api-key": "1864d6be0fd8a671c6e3a43ef9d77ad07ae48f1f1d4694c5e8fd49aea201a053"
        }
    }
}
